{
  "items": [
    {
      "id": 1,
      "name": "Ноутбук ASUS",
      "price": 899.99,
      "description": "Игровой ноутбук",
      "in_stock": false,
      "created_at": "2026-02-22T14:21:12.218942",
      "updated_at": "2026-02-22T14:26:45.715066"
    },
    {
      "id": 2,
      "name": "Мышь Logitech",
      "price": 25.5,
      "description": null,
      "in_stock": true,
      "created_at": "2026-02-22T14:25:03.809331",
      "updated_at": "2026-02-22T14:25:03.809331"
    },
    {
      "id": 3,
      "name": "Ноутбук ASUS",
      "price": 999.99,
      "description": "Игровой ноутбук",
      "in_stock": true,
      "created_at": "2026-02-22T15:48:18.659727",
      "updated_at": "2026-02-22T15:48:18.659727"
    },
    {
      "id": 4,
      "name": "Мышь Logitech",
      "price": 25.5,
      "description": null,
      "in_stock": true,
      "created_at": "2026-02-22T15:48:20.831874",
      "updated_at": "2026-02-22T15:48:20.831874"
    },
    {
      "id": 5,
      "name": "Коврик для мыши",
      "price": 0.0,
      "description": null,
      "in_stock": true,
      "created_at": "2026-02-22T15:48:22.990059",
      "updated_at": "2026-02-22T15:48:22.990059"
    }
  ],
  "total": 69,
  "page": 1,
  "per_page": 5,
  "pages": 14
}