{
  "items": [
    {
      "id": 2,
      "name": "Мышь Logitech",
      "price": 25.5,
      "description": null,
      "in_stock": true,
      "created_at": "2026-02-22T14:25:03.809331",
      "updated_at": "2026-02-22T14:25:03.809331"
    },
    {
      "id": 4,
      "name": "Мышь Logitech",
      "price": 25.5,
      "description": null,
      "in_stock": true,
      "created_at": "2026-02-22T15:48:20.831874",
      "updated_at": "2026-02-22T15:48:20.831874"
    },
    {
      "id": 5,
      "name": "Коврик для мыши",
      "price": 0.0,
      "description": null,
      "in_stock": true,
      "created_at": "2026-02-22T15:48:22.990059",
      "updated_at": "2026-02-22T15:48:22.990059"
    },
    {
      "id": 6,
      "name": "AAAAAAAAAAAAAAAAAAAAAAAAAAAAAAAAAAAAAAAAAAAAAAAAAAAAAAAAAAAAAAAAAAAAAAAAAAAAAAAAAAAAAAAAAAAAAAAAAAAA",
      "price": 100.0,
      "description": null,
      "in_stock": true,
      "created_at": "2026-02-22T15:48:25.149095",
      "updated_at": "2026-02-22T15:48:25.149095"
    },
    {
      "id": 8,
      "name": "User-friendly methodical knowledge user",
      "price": 42.46,
      "description": "She miss phone ever back. Doctor from throw ball character.\nRelationship ask imagine my. Artist strategy hope show watch affect. Herself accept goal send table well industry.",
      "in_stock": false,
      "created_at": "2026-02-22T15:48:37.829580",
      "updated_at": "2026-02-22T15:48:37.829580"
    },
    {
      "id": 25,
      "name": "Мышь Logitech",
      "price": 25.5,
      "description": null,
      "in_stock": true,
      "created_at": "2026-02-22T15:54:12.347028",
      "updated_at": "2026-02-22T15:54:12.347028"
    },
    {
      "id": 26,
      "name": "Коврик для мыши",
      "price": 0.0,
      "description": null,
      "in_stock": true,
      "created_at": "2026-02-22T15:54:14.525966",
      "updated_at": "2026-02-22T15:54:14.525966"
    },
    {
      "id": 27,
      "name": "AAAAAAAAAAAAAAAAAAAAAAAAAAAAAAAAAAAAAAAAAAAAAAAAAAAAAAAAAAAAAAAAAAAAAAAAAAAAAAAAAAAAAAAAAAAAAAAAAAAA",
      "price": 100.0,
      "description": null,
      "in_stock": true,
      "created_at": "2026-02-22T15:54:16.680003",
      "updated_at": "2026-02-22T15:54:16.680003"
    },
    {
      "id": 29,
      "name": "User-friendly methodical knowledge user",
      "price": 42.46,
      "description": "She miss phone ever back. Doctor from throw ball character.\nRelationship ask imagine my. Artist strategy hope show watch affect. Herself accept goal send table well industry.",
      "in_stock": false,
      "created_at": "2026-02-22T15:54:29.266907",
      "updated_at": "2026-02-22T15:54:29.266907"
    },
    {
      "id": 46,
      "name": "Мышь Logitech",
      "price": 25.5,
      "description": null,
      "in_stock": true,
      "created_at": "2026-02-22T16:56:57.901586",
      "updated_at": "2026-02-22T16:56:57.901586"
    },
    {
      "id": 47,
      "name": "Коврик для мыши",
      "price": 0.0,
      "description": null,
      "in_stock": true,
      "created_at": "2026-02-22T16:56:58.021845",
      "updated_at": "2026-02-22T16:56:58.021845"
    },
    {
      "id": 48,
      "name": "AAAAAAAAAAAAAAAAAAAAAAAAAAAAAAAAAAAAAAAAAAAAAAAAAAAAAAAAAAAAAAAAAAAAAAAAAAAAAAAAAAAAAAAAAAAAAAAAAAAA",
      "price": 100.0,
      "description": null,
      "in_stock": true,
      "created_at": "2026-02-22T16:56:58.161848",
      "updated_at": "2026-02-22T16:56:58.161848"
    },
    {
      "id": 50,
      "name": "User-friendly methodical knowledge user",
      "price": 42.46,
      "description": "She miss phone ever back. Doctor from throw ball character.\nRelationship ask imagine my. Artist strategy hope show watch affect. Herself accept goal send table well industry.",
      "in_stock": false,
      "created_at": "2026-02-22T16:56:58.664968",
      "updated_at": "2026-02-22T16:56:58.664968"
    },
    {
      "id": 52,
      "name": "Мышь Logitech",
      "price": 25.5,
      "description": null,
      "in_stock": true,
      "created_at": "2026-02-22T16:58:17.448381",
      "updated_at": "2026-02-22T16:58:17.448381"
    },
    {
      "id": 53,
      "name": "Коврик для мыши",
      "price": 0.0,
      "description": null,
      "in_stock": true,
      "created_at": "2026-02-22T16:58:17.574771",
      "updated_at": "2026-02-22T16:58:17.574771"
    },
    {
      "id": 54,
      "name": "AAAAAAAAAAAAAAAAAAAAAAAAAAAAAAAAAAAAAAAAAAAAAAAAAAAAAAAAAAAAAAAAAAAAAAAAAAAAAAAAAAAAAAAAAAAAAAAAAAAA",
      "price": 100.0,
      "description": null,
      "in_stock": true,
      "created_at": "2026-02-22T16:58:17.732644",
      "updated_at": "2026-02-22T16:58:17.732644"
    },
    {
      "id": 56,
      "name": "User-friendly methodical knowledge user",
      "price": 42.46,
      "description": "She miss phone ever back. Doctor from throw ball character.\nRelationship ask imagine my. Artist strategy hope show watch affect. Herself accept goal send table well industry.",
      "in_stock": false,
      "created_at": "2026-02-22T16:58:18.364646",
      "updated_at": "2026-02-22T16:58:18.364646"
    },
    {
      "id": 58,
      "name": "Мышь Logitech",
      "price": 25.5,
      "description": null,
      "in_stock": true,
      "created_at": "2026-02-22T17:07:43.422281",
      "updated_at": "2026-02-22T17:07:43.422281"
    },
    {
      "id": 59,
      "name": "Коврик для мыши",
      "price": 0.0,
      "description": null,
      "in_stock": true,
      "created_at": "2026-02-22T17:07:43.547812",
      "updated_at": "2026-02-22T17:07:43.547812"
    },
    {
      "id": 60,
      "name": "AAAAAAAAAAAAAAAAAAAAAAAAAAAAAAAAAAAAAAAAAAAAAAAAAAAAAAAAAAAAAAAAAAAAAAAAAAAAAAAAAAAAAAAAAAAAAAAAAAAA",
      "price": 100.0,
      "description": null,
      "in_stock": true,
      "created_at": "2026-02-22T17:07:43.688767",
      "updated_at": "2026-02-22T17:07:43.688767"
    }
  ],
  "total": 24,
  "page": 1,
  "per_page": 20,
  "pages": 2
}