{
  "items": [
    {
      "id": 6,
      "name": "AAAAAAAAAAAAAAAAAAAAAAAAAAAAAAAAAAAAAAAAAAAAAAAAAAAAAAAAAAAAAAAAAAAAAAAAAAAAAAAAAAAAAAAAAAAAAAAAAAAA",
      "price": 100.0,
      "description": null,
      "in_stock": true,
      "created_at": "2026-02-22T15:48:25.149095",
      "updated_at": "2026-02-22T15:48:25.149095"
    },
    {
      "id": 7,
      "name": "Товар",
      "price": 999999.99,
      "description": null,
      "in_stock": true,
      "created_at": "2026-02-22T15:48:27.308946",
      "updated_at": "2026-02-22T15:48:27.308946"
    },
    {
      "id": 8,
      "name": "User-friendly methodical knowledge user",
      "price": 42.46,
      "description": "She miss phone ever back. Doctor from throw ball character.\nRelationship ask imagine my. Artist strategy hope show watch affect. Herself accept goal send table well industry.",
      "in_stock": false,
      "created_at": "2026-02-22T15:48:37.829580",
      "updated_at": "2026-02-22T15:48:37.829580"
    },
    {
      "id": 19,
      "name": "Pagination Item 10",
      "price": 110.0,
      "description": null,
      "in_stock": true,
      "created_at": "2026-02-22T15:50:24.268896",
      "updated_at": "2026-02-22T15:50:24.268896"
    },
    {
      "id": 20,
      "name": "Pagination Item 11",
      "price": 111.0,
      "description": null,
      "in_stock": true,
      "created_at": "2026-02-22T15:50:26.517778",
      "updated_at": "2026-02-22T15:50:26.517778"
    }
  ],
  "total": 69,
  "page": 2,
  "per_page": 5,
  "pages": 14
}