{
  "items": [
    {
      "id": 1,
      "name": "Ноутбук ASUS",
      "price": 899.99,
      "description": "Игровой ноутбук",
      "in_stock": false,
      "created_at": "2026-02-22T14:21:12.218942",
      "updated_at": "2026-02-22T14:26:45.715066"
    },
    {
      "id": 2,
      "name": "Мышь Logitech",
      "price": 25.5,
      "description": null,
      "in_stock": true,
      "created_at": "2026-02-22T14:25:03.809331",
      "updated_at": "2026-02-22T14:25:03.809331"
    },
    {
      "id": 3,
      "name": "Ноутбук ASUS",
      "price": 999.99,
      "description": "Игровой ноутбук",
      "in_stock": true,
      "created_at": "2026-02-22T15:48:18.659727",
      "updated_at": "2026-02-22T15:48:18.659727"
    },
    {
      "id": 4,
      "name": "Мышь Logitech",
      "price": 25.5,
      "description": null,
      "in_stock": true,
      "created_at": "2026-02-22T15:48:20.831874",
      "updated_at": "2026-02-22T15:48:20.831874"
    },
    {
      "id": 5,
      "name": "Коврик для мыши",
      "price": 0.0,
      "description": null,
      "in_stock": true,
      "created_at": "2026-02-22T15:48:22.990059",
      "updated_at": "2026-02-22T15:48:22.990059"
    },
    {
      "id": 6,
      "name": "AAAAAAAAAAAAAAAAAAAAAAAAAAAAAAAAAAAAAAAAAAAAAAAAAAAAAAAAAAAAAAAAAAAAAAAAAAAAAAAAAAAAAAAAAAAAAAAAAAAA",
      "price": 100.0,
      "description": null,
      "in_stock": true,
      "created_at": "2026-02-22T15:48:25.149095",
      "updated_at": "2026-02-22T15:48:25.149095"
    },
    {
      "id": 7,
      "name": "Товар",
      "price": 999999.99,
      "description": null,
      "in_stock": true,
      "created_at": "2026-02-22T15:48:27.308946",
      "updated_at": "2026-02-22T15:48:27.308946"
    },
    {
      "id": 8,
      "name": "User-friendly methodical knowledge user",
      "price": 42.46,
      "description": "She miss phone ever back. Doctor from throw ball character.\nRelationship ask imagine my. Artist strategy hope show watch affect. Herself accept goal send table well industry.",
      "in_stock": false,
      "created_at": "2026-02-22T15:48:37.829580",
      "updated_at": "2026-02-22T15:48:37.829580"
    },
    {
      "id": 19,
      "name": "Pagination Item 10",
      "price": 110.0,
      "description": null,
      "in_stock": true,
      "created_at": "2026-02-22T15:50:24.268896",
      "updated_at": "2026-02-22T15:50:24.268896"
    },
    {
      "id": 20,
      "name": "Pagination Item 11",
      "price": 111.0,
      "description": null,
      "in_stock": true,
      "created_at": "2026-02-22T15:50:26.517778",
      "updated_at": "2026-02-22T15:50:26.517778"
    },
    {
      "id": 21,
      "name": "Pagination Item 12",
      "price": 112.0,
      "description": null,
      "in_stock": true,
      "created_at": "2026-02-22T15:50:28.781948",
      "updated_at": "2026-02-22T15:50:28.781948"
    },
    {
      "id": 22,
      "name": "Pagination Item 13",
      "price": 113.0,
      "description": null,
      "in_stock": true,
      "created_at": "2026-02-22T15:50:30.921022",
      "updated_at": "2026-02-22T15:50:30.921022"
    },
    {
      "id": 23,
      "name": "Pagination Item 14",
      "price": 114.0,
      "description": null,
      "in_stock": true,
      "created_at": "2026-02-22T15:50:33.213690",
      "updated_at": "2026-02-22T15:50:33.213690"
    },
    {
      "id": 24,
      "name": "Ноутбук ASUS",
      "price": 999.99,
      "description": "Игровой ноутбук",
      "in_stock": true,
      "created_at": "2026-02-22T15:54:10.067909",
      "updated_at": "2026-02-22T15:54:10.067909"
    },
    {
      "id": 25,
      "name": "Мышь Logitech",
      "price": 25.5,
      "description": null,
      "in_stock": true,
      "created_at": "2026-02-22T15:54:12.347028",
      "updated_at": "2026-02-22T15:54:12.347028"
    },
    {
      "id": 26,
      "name": "Коврик для мыши",
      "price": 0.0,
      "description": null,
      "in_stock": true,
      "created_at": "2026-02-22T15:54:14.525966",
      "updated_at": "2026-02-22T15:54:14.525966"
    },
    {
      "id": 27,
      "name": "AAAAAAAAAAAAAAAAAAAAAAAAAAAAAAAAAAAAAAAAAAAAAAAAAAAAAAAAAAAAAAAAAAAAAAAAAAAAAAAAAAAAAAAAAAAAAAAAAAAA",
      "price": 100.0,
      "description": null,
      "in_stock": true,
      "created_at": "2026-02-22T15:54:16.680003",
      "updated_at": "2026-02-22T15:54:16.680003"
    },
    {
      "id": 28,
      "name": "Товар",
      "price": 999999.99,
      "description": null,
      "in_stock": true,
      "created_at": "2026-02-22T15:54:18.839067",
      "updated_at": "2026-02-22T15:54:18.839067"
    },
    {
      "id": 29,
      "name": "User-friendly methodical knowledge user",
      "price": 42.46,
      "description": "She miss phone ever back. Doctor from throw ball character.\nRelationship ask imagine my. Artist strategy hope show watch affect. Herself accept goal send table well industry.",
      "in_stock": false,
      "created_at": "2026-02-22T15:54:29.266907",
      "updated_at": "2026-02-22T15:54:29.266907"
    },
    {
      "id": 40,
      "name": "Pagination Item 10",
      "price": 110.0,
      "description": null,
      "in_stock": true,
      "created_at": "2026-02-22T15:56:14.827963",
      "updated_at": "2026-02-22T15:56:14.827963"
    }
  ],
  "total": 48,
  "page": 1,
  "per_page": 20,
  "pages": 3
}